,word,abs_freq,abs_perc,abs_perc_cum,wtd_freq_perc,wtd_freq_perc_cum
4,security,89,0.008742632612966601,0.14204322200392927,0.008742632612966601,0.14204322200392927
16,fraud,51,0.005009823182711199,0.21502946954813357,0.005009823182711199,0.21502946954813357
27,cyber,37,0.0036345776031434184,0.2614931237721021,0.0036345776031434184,0.2614931237721021
30,threat,36,0.003536345776031434,0.2722003929273084,0.003536345776031434,0.2722003929273084
38,cybersecurity,31,0.0030451866404715127,0.2982318271119842,0.0030451866404715127,0.2982318271119842
55,risk,26,0.002554027504911591,0.34656188605108046,0.002554027504911591,0.34656188605108046
87,threats,18,0.001768172888015717,0.4156188605108055,0.001768172888015717,0.4156188605108055
174,malware,10,0.0009823182711198428,0.5297642436149312,0.0009823182711198428,0.5297642436149312
294,anomaly,6,0.0005893909626719057,0.6211198428290725,0.0005893909626719057,0.6211198428290725
437,risks,4,0.0003929273084479371,0.6942043222003915,0.0003929273084479371,0.6942043222003915
451,crimes,4,0.0003929273084479371,0.6997053045186632,0.0003929273084479371,0.6997053045186632
456,phishing,4,0.0003929273084479371,0.7016699410609031,0.0003929273084479371,0.7016699410609031
571,vulnerability,3,0.00029469548133595285,0.7442043222003966,0.00029469548133595285,0.7442043222003966
585,malicious,3,0.00029469548133595285,0.7483300589391003,0.00029469548133595285,0.7483300589391003
586,privacy,3,0.00029469548133595285,0.7486247544204363,0.00029469548133595285,0.7486247544204363
